"city_id","city_name","city_prov_id","city_seq","city_bps_code","city_created_by","city_created_date","city_updated_by","city_updated_date"
9,KAB. SIMEULUE,1,9,"1109",ADMIN,2018-11-04 21:29:11,,
10,KAB. ACEH SINGKIL,1,10,"1110",ADMIN,2018-11-04 21:29:11,,
11,KAB. BIREUEN,1,11,"1111",ADMIN,2018-11-04 21:29:11,,
12,KAB. ACEH BARAT DAYA,1,12,"1112",ADMIN,2018-11-04 21:29:11,,
13,KAB. GAYO LUES,1,13,"1113",ADMIN,2018-11-04 21:29:11,,
14,KAB. ACEH JAYA,1,14,"1114",ADMIN,2018-11-04 21:29:11,,
15,KAB. NAGAN RAYA,1,15,"1115",ADMIN,2018-11-04 21:29:11,,
16,KAB. ACEH TAMIANG,1,16,"1116",ADMIN,2018-11-04 21:29:11,,
17,KAB. BENER MERIAH,1,17,"1117",ADMIN,2018-11-04 21:29:11,,
18,KAB. PIDIE JAYA,1,18,"1118",ADMIN,2018-11-04 21:29:11,,
19,KOTA BANDA ACEH,1,71,"1171",ADMIN,2018-11-04 21:29:11,,
20,KOTA SABANG,1,72,"1172",ADMIN,2018-11-04 21:29:11,,
21,KOTA LHOKSEUMAWE,1,73,"1173",ADMIN,2018-11-04 21:29:11,,
22,KOTA LANGSA,1,74,"1174",ADMIN,2018-11-04 21:29:11,,
23,KOTA SUBULUSSALAM,1,75,"1175",ADMIN,2018-11-04 21:29:11,,
24,KAB. TAPANULI TENGAH,2,1,"1201",ADMIN,2018-11-04 21:29:11,,
25,KAB. TAPANULI UTARA,2,2,"1202",ADMIN,2018-11-04 21:29:11,,
26,KAB. TAPANULI SELATAN,2,3,"1203",ADMIN,2018-11-04 21:29:11,,
27,KAB. NIAS,2,4,"1204",ADMIN,2018-11-04 21:29:11,,
28,KAB. LANGKAT,2,5,"1205",ADMIN,2018-11-04 21:29:11,,
29,KAB. KARO,2,6,"1206",ADMIN,2018-11-04 21:29:11,,
30,KAB. DELI SERDANG,2,7,"1207",ADMIN,2018-11-04 21:29:11,,
31,KAB. SIMALUNGUN,2,8,"1208",ADMIN,2018-11-04 21:29:11,,
32,KAB. ASAHAN,2,9,"1209",ADMIN,2018-11-04 21:29:11,,
33,KAB. LABUHANBATU,2,10,"1210",ADMIN,2018-11-04 21:29:11,,
34,KAB. DAIRI,2,11,"1211",ADMIN,2018-11-04 21:29:11,,
35,KAB. TOBA SAMOSIR,2,12,"1212",ADMIN,2018-11-04 21:29:11,,
36,KAB. MANDAILING NATAL,2,13,"1213",ADMIN,2018-11-04 21:29:11,,
37,KAB. NIAS SELATAN,2,14,"1214",ADMIN,2018-11-04 21:29:11,,
38,KAB. PAKPAK BHARAT,2,15,"1215",ADMIN,2018-11-04 21:29:11,,
39,KAB. HUMBANG HASUNDUTAN,2,16,"1216",ADMIN,2018-11-04 21:29:11,,
40,KAB. SAMOSIR,2,17,"1217",ADMIN,2018-11-04 21:29:11,,
41,KAB. SERDANG BEDAGAI,2,18,"1218",ADMIN,2018-11-04 21:29:11,,
42,KAB. BATU BARA,2,19,"1219",ADMIN,2018-11-04 21:29:11,,
43,KAB. PADANG LAWAS UTARA,2,20,"1220",ADMIN,2018-11-04 21:29:11,,
44,KAB. PADANG LAWAS,2,21,"1221",ADMIN,2018-11-04 21:29:11,,
45,KAB. LABUHANBATU SELATAN,2,22,"1222",ADMIN,2018-11-04 21:29:11,,
46,KAB. LABUHANBATU UTARA,2,23,"1223",ADMIN,2018-11-04 21:29:11,,
47,KAB. NIAS UTARA,2,24,"1224",ADMIN,2018-11-04 21:29:11,,
48,KAB. NIAS BARAT,2,25,"1225",ADMIN,2018-11-04 21:29:11,,
49,KOTA MEDAN,2,71,"1271",ADMIN,2018-11-04 21:29:11,,
50,KOTA PEMATANGSIANTAR,2,72,"1272",ADMIN,2018-11-04 21:29:11,,
51,KOTA SIBOLGA,2,73,"1273",ADMIN,2018-11-04 21:29:11,,
52,KOTA TANJUNG BALAI,2,74,"1274",ADMIN,2018-11-04 21:29:11,,
53,KOTA BINJAI,2,75,"1275",ADMIN,2018-11-04 21:29:11,,
54,KOTA TEBING TINGGI,2,76,"1276",ADMIN,2018-11-04 21:29:11,,
55,KOTA PADANGSIDIMPUAN,2,77,"1277",ADMIN,2018-11-04 21:29:11,,
56,KOTA GUNUNGSITOLI,2,78,"1278",ADMIN,2018-11-04 21:29:11,,
57,KAB. PESISIR SELATAN,3,1,"1301",ADMIN,2018-11-04 21:29:11,,
58,KAB. SOLOK,3,2,"1302",ADMIN,2018-11-04 21:29:11,,
59,KAB. SIJUNJUNG,3,3,"1303",ADMIN,2018-11-04 21:29:11,,
60,KAB. TANAH DATAR,3,4,"1304",ADMIN,2018-11-04 21:29:11,,
61,KAB. PADANG PARIAMAN,3,5,"1305",ADMIN,2018-11-04 21:29:11,,
62,KAB. AGAM,3,6,"1306",ADMIN,2018-11-04 21:29:11,,
63,KAB. LIMA PULUH KOTA,3,7,"1307",ADMIN,2018-11-04 21:29:11,,
64,KAB. PASAMAN,3,8,"1308",ADMIN,2018-11-04 21:29:11,,
65,KAB. KEPULAUAN MENTAWAI,3,9,"1309",ADMIN,2018-11-04 21:29:11,,
66,KAB. DHARMASRAYA,3,10,"1310",ADMIN,2018-11-04 21:29:11,,
67,KAB. SOLOK SELATAN,3,11,"1311",ADMIN,2018-11-04 21:29:11,,
68,KAB. PASAMAN BARAT,3,12,"1312",ADMIN,2018-11-04 21:29:11,,
69,KOTA PADANG,3,71,"1371",ADMIN,2018-11-04 21:29:11,,
70,KOTA SOLOK,3,72,"1372",ADMIN,2018-11-04 21:29:11,,
71,KOTA SAWAHLUNTO,3,73,"1373",ADMIN,2018-11-04 21:29:11,,
72,KOTA PADANG PANJANG,3,74,"1374",ADMIN,2018-11-04 21:29:11,,
73,KOTA BUKITTINGGI,3,75,"1375",ADMIN,2018-11-04 21:29:11,,
74,KOTA PAYAKUMBUH,3,76,"1376",ADMIN,2018-11-04 21:29:11,,
75,KOTA PARIAMAN,3,77,"1377",ADMIN,2018-11-04 21:29:11,,
76,KAB. KAMPAR,4,1,"1401",ADMIN,2018-11-04 21:29:11,,
77,KAB. INDRAGIRI HULU,4,2,"1402",ADMIN,2018-11-04 21:29:11,,
78,KAB. BENGKALIS,4,3,"1403",ADMIN,2018-11-04 21:29:11,,
79,KAB. INDRAGIRI HILIR,4,4,"1404",ADMIN,2018-11-04 21:29:11,,
80,KAB. PELALAWAN,4,5,"1405",ADMIN,2018-11-04 21:29:11,,
81,KAB. ROKAN HULU,4,6,"1406",ADMIN,2018-11-04 21:29:11,,
82,KAB. ROKAN HILIR,4,7,"1407",ADMIN,2018-11-04 21:29:11,,
83,KAB. SIAK,4,8,"1408",ADMIN,2018-11-04 21:29:11,,
84,KAB. KUANTAN SINGINGI,4,9,"1409",ADMIN,2018-11-04 21:29:11,,
85,KAB. KEPULAUAN MERANTI,4,10,"1410",ADMIN,2018-11-04 21:29:11,,
86,KOTA PEKANBARU,4,71,"1471",ADMIN,2018-11-04 21:29:11,,
87,KOTA DUMAI,4,72,"1472",ADMIN,2018-11-04 21:29:11,,
88,KAB. KERINCI,5,1,"1501",ADMIN,2018-11-04 21:29:11,,
89,KAB. MERANGIN,5,2,"1502",ADMIN,2018-11-04 21:29:11,,
90,KAB. SAROLANGUN,5,3,"1503",ADMIN,2018-11-04 21:29:11,,
91,KAB. BATANGHARI,5,4,"1504",ADMIN,2018-11-04 21:29:11,,
92,KAB. MUARO JAMBI,5,5,"1505",ADMIN,2018-11-04 21:29:11,,
93,KAB. TANJUNG JABUNG BARAT,5,6,"1506",ADMIN,2018-11-04 21:29:11,,
3,KAB. ACEH TIMUR,1,3,"1103",ADMIN,2018-11-04 21:29:11,,2022-03-08 21:29:11
4,KAB. ACEH TENGAH,1,4,"1104",ADMIN,2018-11-04 21:29:11,,2022-03-09 21:29:11
5,KAB. ACEH BARAT,1,5,"1105",ADMIN,2018-11-04 21:29:11,,2022-03-10 21:29:11
6,KAB. ACEH BESAR,1,6,"1106",ADMIN,2018-11-04 21:29:11,,2022-03-11 21:29:11
7,KAB. PIDIE,1,7,"1107",ADMIN,2018-11-04 21:29:11,,2022-03-12 21:29:11
8,KAB. ACEH UTARA,1,8,"1108",ADMIN,2018-11-04 21:29:11,,2022-03-13 21:29:11
94,KAB. TANJUNG JABUNG TIMUR,5,7,"1507",ADMIN,2018-11-04 21:29:11,,
95,KAB. BUNGO,5,8,"1508",ADMIN,2018-11-04 21:29:11,,
96,KAB. TEBO,5,9,"1509",ADMIN,2018-11-04 21:29:11,,
97,KOTA JAMBI,5,71,"1571",ADMIN,2018-11-04 21:29:11,,
98,KOTA SUNGAI PENUH,5,72,"1572",ADMIN,2018-11-04 21:29:11,,
99,KAB. OGAN KOMERING ULU,6,1,"1601",ADMIN,2018-11-04 21:29:11,,
100,KAB. OGAN KOMERING ILIR,6,2,"1602",ADMIN,2018-11-04 21:29:11,,
101,KAB. MUARA ENIM,6,3,"1603",ADMIN,2018-11-04 21:29:11,,
102,KAB. LAHAT,6,4,"1604",ADMIN,2018-11-04 21:29:11,,
103,KAB. MUSI RAWAS,6,5,"1605",ADMIN,2018-11-04 21:29:11,,
104,KAB. MUSI BANYUASIN,6,6,"1606",ADMIN,2018-11-04 21:29:11,,
105,KAB. BANYUASIN,6,7,"1607",ADMIN,2018-11-04 21:29:11,,
106,KAB. OGAN KOMERING ULU TIMUR,6,8,"1608",ADMIN,2018-11-04 21:29:11,,
107,KAB. OGAN KOMERING ULU SELATAN,6,9,"1609",ADMIN,2018-11-04 21:29:11,,
108,KAB. OGAN ILIR,6,10,"1610",ADMIN,2018-11-04 21:29:11,,
109,KAB. EMPAT LAWANG,6,11,"1611",ADMIN,2018-11-04 21:29:11,,
110,KAB. PENUKAL ABAB LEMATANG ILIR,6,12,"1612",ADMIN,2018-11-04 21:29:11,,
111,KAB. MUSI RAWAS UTARA,6,13,"1613",ADMIN,2018-11-04 21:29:11,,
112,KOTA PALEMBANG,6,71,"1671",ADMIN,2018-11-04 21:29:11,,
113,KOTA PAGAR ALAM,6,72,"1672",ADMIN,2018-11-04 21:29:11,,
114,KOTA LUBUK LINGGAU,6,73,"1673",ADMIN,2018-11-04 21:29:11,,
115,KOTA PRABUMULIH,6,74,"1674",ADMIN,2018-11-04 21:29:11,,
116,KAB. BENGKULU SELATAN,7,1,"1701",ADMIN,2018-11-04 21:29:11,,
117,KAB. REJANG LEBONG,7,2,"1702",ADMIN,2018-11-04 21:29:11,,
118,KAB. BENGKULU UTARA,7,3,"1703",ADMIN,2018-11-04 21:29:11,,
119,KAB. KAUR,7,4,"1704",ADMIN,2018-11-04 21:29:11,,
120,KAB. SELUMA,7,5,"1705",ADMIN,2018-11-04 21:29:11,,
121,KAB. MUKO MUKO,7,6,"1706",ADMIN,2018-11-04 21:29:11,,
122,KAB. LEBONG,7,7,"1707",ADMIN,2018-11-04 21:29:11,,
123,KAB. KEPAHIANG,7,8,"1708",ADMIN,2018-11-04 21:29:11,,
124,KAB. BENGKULU TENGAH,7,9,"1709",ADMIN,2018-11-04 21:29:11,,
125,KOTA BENGKULU,7,71,"1771",ADMIN,2018-11-04 21:29:11,,
126,KAB. LAMPUNG SELATAN,8,1,"1801",ADMIN,2018-11-04 21:29:11,,
127,KAB. LAMPUNG TENGAH,8,2,"1802",ADMIN,2018-11-04 21:29:11,,
128,KAB. LAMPUNG UTARA,8,3,"1803",ADMIN,2018-11-04 21:29:11,,
129,KAB. LAMPUNG BARAT,8,4,"1804",ADMIN,2018-11-04 21:29:11,,
130,KAB. TULANG BAWANG,8,5,"1805",ADMIN,2018-11-04 21:29:11,,
131,KAB. TANGGAMUS,8,6,"1806",ADMIN,2018-11-04 21:29:11,,
132,KAB. LAMPUNG TIMUR,8,7,"1807",ADMIN,2018-11-04 21:29:11,,
133,KAB. WAY KANAN,8,8,"1808",ADMIN,2018-11-04 21:29:11,,
134,KAB. PESAWARAN,8,9,"1809",ADMIN,2018-11-04 21:29:11,,
135,KAB. PRINGSEWU,8,10,"1810",ADMIN,2018-11-04 21:29:11,,
136,KAB. MESUJI,8,11,"1811",ADMIN,2018-11-04 21:29:11,,
137,KAB. TULANG BAWANG BARAT,8,12,"1812",ADMIN,2018-11-04 21:29:11,,
138,KAB. PESISIR BARAT,8,13,"1813",ADMIN,2018-11-04 21:29:11,,
139,KOTA BANDAR LAMPUNG,8,71,"1871",ADMIN,2018-11-04 21:29:11,,
140,KOTA METRO,8,72,"1872",ADMIN,2018-11-04 21:29:11,,
141,KAB. BANGKA,9,1,"1901",ADMIN,2018-11-04 21:29:11,,
142,KAB. BELITUNG,9,2,"1902",ADMIN,2018-11-04 21:29:11,,
143,KAB. BANGKA SELATAN,9,3,"1903",ADMIN,2018-11-04 21:29:11,,
144,KAB. BANGKA TENGAH,9,4,"1904",ADMIN,2018-11-04 21:29:11,,
145,KAB. BANGKA BARAT,9,5,"1905",ADMIN,2018-11-04 21:29:11,,
146,KAB. BELITUNG TIMUR,9,6,"1906",ADMIN,2018-11-04 21:29:11,,
147,KOTA PANGKAL PINANG,9,71,"1971",ADMIN,2018-11-04 21:29:11,,
148,KAB. BINTAN,10,1,"2101",ADMIN,2018-11-04 21:29:11,,
149,KAB. KARIMUN,10,2,"2102",ADMIN,2018-11-04 21:29:11,,
150,KAB. NATUNA,10,3,"2103",ADMIN,2018-11-04 21:29:11,,
151,KAB. LINGGA,10,4,"2104",ADMIN,2018-11-04 21:29:11,,
152,KAB. KEPULAUAN ANAMBAS,10,5,"2105",ADMIN,2018-11-04 21:29:11,,
153,KOTA BATAM,10,71,"2171",ADMIN,2018-11-04 21:29:11,,
154,KOTA TANJUNG PINANG,10,72,"2172",ADMIN,2018-11-04 21:29:11,,
155,KAB. ADM. KEP. SERIBU,11,1,"3101",ADMIN,2018-11-04 21:29:11,,
156,KOTA ADM. JAKARTA PUSAT,11,71,"3171",ADMIN,2018-11-04 21:29:11,,
157,KOTA ADM. JAKARTA UTARA,11,72,"3172",ADMIN,2018-11-04 21:29:11,,
158,KOTA ADM. JAKARTA BARAT,11,73,"3173",ADMIN,2018-11-04 21:29:11,,
159,KOTA ADM. JAKARTA SELATAN,11,74,"3174",ADMIN,2018-11-04 21:29:11,,
160,KOTA ADM. JAKARTA TIMUR,11,75,"3175",ADMIN,2018-11-04 21:29:11,,
161,KAB. BOGOR,12,1,"3201",ADMIN,2018-11-04 21:29:11,,
162,KAB. SUKABUMI,12,2,"3202",ADMIN,2018-11-04 21:29:11,,
163,KAB. CIANJUR,12,3,"3203",ADMIN,2018-11-04 21:29:11,,
164,KAB. BANDUNG,12,4,"3204",ADMIN,2018-11-04 21:29:11,,
165,KAB. GARUT,12,5,"3205",ADMIN,2018-11-04 21:29:11,,
166,KAB. TASIKMALAYA,12,6,"3206",ADMIN,2018-11-04 21:29:11,,
167,KAB. CIAMIS,12,7,"3207",ADMIN,2018-11-04 21:29:11,,
168,KAB. KUNINGAN,12,8,"3208",ADMIN,2018-11-04 21:29:11,,
169,KAB. CIREBON,12,9,"3209",ADMIN,2018-11-04 21:29:11,,
170,KAB. MAJALENGKA,12,10,"3210",ADMIN,2018-11-04 21:29:11,,
171,KAB. SUMEDANG,12,11,"3211",ADMIN,2018-11-04 21:29:11,,
172,KAB. INDRAMAYU,12,12,"3212",ADMIN,2018-11-04 21:29:11,,
173,KAB. SUBANG,12,13,"3213",ADMIN,2018-11-04 21:29:11,,
174,KAB. PURWAKARTA,12,14,"3214",ADMIN,2018-11-04 21:29:11,,
175,KAB. KARAWANG,12,15,"3215",ADMIN,2018-11-04 21:29:11,,
176,KAB. BEKASI,12,16,"3216",ADMIN,2018-11-04 21:29:11,,
177,KAB. BANDUNG BARAT,12,17,"3217",ADMIN,2018-11-04 21:29:11,,
178,KAB. PANGANDARAN,12,18,"3218",ADMIN,2018-11-04 21:29:11,,
179,KOTA BOGOR,12,71,"3271",ADMIN,2018-11-04 21:29:11,,
180,KOTA SUKABUMI,12,72,"3272",ADMIN,2018-11-04 21:29:11,,
181,KOTA BANDUNG,12,73,"3273",ADMIN,2018-11-04 21:29:11,,
182,KOTA CIREBON,12,74,"3274",ADMIN,2018-11-04 21:29:11,,
183,KOTA BEKASI,12,75,"3275",ADMIN,2018-11-04 21:29:11,,
184,KOTA DEPOK,12,76,"3276",ADMIN,2018-11-04 21:29:11,,
185,KOTA CIMAHI,12,77,"3277",ADMIN,2018-11-04 21:29:11,,
186,KOTA TASIKMALAYA,12,78,"3278",ADMIN,2018-11-04 21:29:11,,
187,KOTA BANJAR,12,79,"3279",ADMIN,2018-11-04 21:29:11,,
188,KAB. CILACAP,13,1,"3301",ADMIN,2018-11-04 21:29:11,,
189,KAB. BANYUMAS,13,2,"3302",ADMIN,2018-11-04 21:29:11,,
190,KAB. PURBALINGGA,13,3,"3303",ADMIN,2018-11-04 21:29:11,,
191,KAB. BANJARNEGARA,13,4,"3304",ADMIN,2018-11-04 21:29:11,,
192,KAB. KEBUMEN,13,5,"3305",ADMIN,2018-11-04 21:29:11,,
193,KAB. PURWOREJO,13,6,"3306",ADMIN,2018-11-04 21:29:11,,
194,KAB. WONOSOBO,13,7,"3307",ADMIN,2018-11-04 21:29:11,,
195,KAB. MAGELANG,13,8,"3308",ADMIN,2018-11-04 21:29:11,,
196,KAB. BOYOLALI,13,9,"3309",ADMIN,2018-11-04 21:29:11,,
197,KAB. KLATEN,13,10,"3310",ADMIN,2018-11-04 21:29:11,,
198,KAB. SUKOHARJO,13,11,"3311",ADMIN,2018-11-04 21:29:11,,
199,KAB. WONOGIRI,13,12,"3312",ADMIN,2018-11-04 21:29:11,,
200,KAB. KARANGANYAR,13,13,"3313",ADMIN,2018-11-04 21:29:11,,
201,KAB. SRAGEN,13,14,"3314",ADMIN,2018-11-04 21:29:11,,
202,KAB. GROBOGAN,13,15,"3315",ADMIN,2018-11-04 21:29:11,,
203,KAB. BLORA,13,16,"3316",ADMIN,2018-11-04 21:29:11,,
204,KAB. REMBANG,13,17,"3317",ADMIN,2018-11-04 21:29:11,,
205,KAB. PATI,13,18,"3318",ADMIN,2018-11-04 21:29:11,,
206,KAB. KUDUS,13,19,"3319",ADMIN,2018-11-04 21:29:11,,
207,KAB. JEPARA,13,20,"3320",ADMIN,2018-11-04 21:29:11,,
208,KAB. DEMAK,13,21,"3321",ADMIN,2018-11-04 21:29:11,,
209,KAB. SEMARANG,13,22,"3322",ADMIN,2018-11-04 21:29:11,,
210,KAB. TEMANGGUNG,13,23,"3323",ADMIN,2018-11-04 21:29:11,,
211,KAB. KENDAL,13,24,"3324",ADMIN,2018-11-04 21:29:11,,
212,KAB. BATANG,13,25,"3325",ADMIN,2018-11-04 21:29:11,,
213,KAB. PEKALONGAN,13,26,"3326",ADMIN,2018-11-04 21:29:11,,
214,KAB. PEMALANG,13,27,"3327",ADMIN,2018-11-04 21:29:11,,
215,KAB. TEGAL,13,28,"3328",ADMIN,2018-11-04 21:29:11,,
216,KAB. BREBES,13,29,"3329",ADMIN,2018-11-04 21:29:11,,
217,KOTA MAGELANG,13,71,"3371",ADMIN,2018-11-04 21:29:11,,
218,KOTA SURAKARTA,13,72,"3372",ADMIN,2018-11-04 21:29:11,,
219,KOTA SALATIGA,13,73,"3373",ADMIN,2018-11-04 21:29:11,,
220,KOTA SEMARANG,13,74,"3374",ADMIN,2018-11-04 21:29:11,,
221,KOTA PEKALONGAN,13,75,"3375",ADMIN,2018-11-04 21:29:11,,
222,KOTA TEGAL,13,76,"3376",ADMIN,2018-11-04 21:29:11,,
223,KAB. KULON PROGO,14,1,"3401",ADMIN,2018-11-04 21:29:11,,
224,KAB. BANTUL,14,2,"3402",ADMIN,2018-11-04 21:29:11,,
225,KAB. GUNUNGKIDUL,14,3,"3403",ADMIN,2018-11-04 21:29:11,,
226,KAB. SLEMAN,14,4,"3404",ADMIN,2018-11-04 21:29:11,,
227,KOTA YOGYAKARTA,14,71,"3471",ADMIN,2018-11-04 21:29:11,,
228,KAB. PACITAN,15,1,"3501",ADMIN,2018-11-04 21:29:11,,
229,KAB. PONOROGO,15,2,"3502",ADMIN,2018-11-04 21:29:11,,
230,KAB. TRENGGALEK,15,3,"3503",ADMIN,2018-11-04 21:29:11,,
231,KAB. TULUNGAGUNG,15,4,"3504",ADMIN,2018-11-04 21:29:11,,
232,KAB. BLITAR,15,5,"3505",ADMIN,2018-11-04 21:29:11,,
233,KAB. KEDIRI,15,6,"3506",ADMIN,2018-11-04 21:29:11,,
234,KAB. MALANG,15,7,"3507",ADMIN,2018-11-04 21:29:11,,
235,KAB. LUMAJANG,15,8,"3508",ADMIN,2018-11-04 21:29:11,,
236,KAB. JEMBER,15,9,"3509",ADMIN,2018-11-04 21:29:11,,
237,KAB. BANYUWANGI,15,10,"3510",ADMIN,2018-11-04 21:29:11,,
238,KAB. BONDOWOSO,15,11,"3511",ADMIN,2018-11-04 21:29:11,,
239,KAB. SITUBONDO,15,12,"3512",ADMIN,2018-11-04 21:29:11,,
240,KAB. PROBOLINGGO,15,13,"3513",ADMIN,2018-11-04 21:29:11,,
241,KAB. PASURUAN,15,14,"3514",ADMIN,2018-11-04 21:29:11,,
242,KAB. SIDOARJO,15,15,"3515",ADMIN,2018-11-04 21:29:11,,
243,KAB. MOJOKERTO,15,16,"3516",ADMIN,2018-11-04 21:29:11,,
244,KAB. JOMBANG,15,17,"3517",ADMIN,2018-11-04 21:29:11,,
245,KAB. NGANJUK,15,18,"3518",ADMIN,2018-11-04 21:29:11,,
246,KAB. MADIUN,15,19,"3519",ADMIN,2018-11-04 21:29:11,,
247,KAB. MAGETAN,15,20,"3520",ADMIN,2018-11-04 21:29:11,,
248,KAB. NGAWI,15,21,"3521",ADMIN,2018-11-04 21:29:11,,
249,KAB. BOJONEGORO,15,22,"3522",ADMIN,2018-11-04 21:29:11,,
250,KAB. TUBAN,15,23,"3523",ADMIN,2018-11-04 21:29:11,,
251,KAB. LAMONGAN,15,24,"3524",ADMIN,2018-11-04 21:29:11,,
252,KAB. GRESIK,15,25,"3525",ADMIN,2018-11-04 21:29:11,,
253,KAB. BANGKALAN,15,26,"3526",ADMIN,2018-11-04 21:29:11,,
254,KAB. SAMPANG,15,27,"3527",ADMIN,2018-11-04 21:29:11,,
255,KAB. PAMEKASAN,15,28,"3528",ADMIN,2018-11-04 21:29:11,,
256,KAB. SUMENEP,15,29,"3529",ADMIN,2018-11-04 21:29:11,,
257,KOTA KEDIRI,15,71,"3571",ADMIN,2018-11-04 21:29:11,,
258,KOTA BLITAR,15,72,"3572",ADMIN,2018-11-04 21:29:11,,
259,KOTA MALANG,15,73,"3573",ADMIN,2018-11-04 21:29:11,,
260,KOTA PROBOLINGGO,15,74,"3574",ADMIN,2018-11-04 21:29:11,,
261,KOTA PASURUAN,15,75,"3575",ADMIN,2018-11-04 21:29:11,,
262,KOTA MOJOKERTO,15,76,"3576",ADMIN,2018-11-04 21:29:11,,
263,KOTA MADIUN,15,77,"3577",ADMIN,2018-11-04 21:29:11,,
264,KOTA SURABAYA,15,78,"3578",ADMIN,2018-11-04 21:29:11,,
265,KOTA BATU,15,79,"3579",ADMIN,2018-11-04 21:29:11,,
266,KAB. PANDEGLANG,16,1,"3601",ADMIN,2018-11-04 21:29:11,,
267,KAB. LEBAK,16,2,"3602",ADMIN,2018-11-04 21:29:11,,
268,KAB. TANGERANG,16,3,"3603",ADMIN,2018-11-04 21:29:11,,
269,KAB. SERANG,16,4,"3604",ADMIN,2018-11-04 21:29:11,,
270,KOTA TANGERANG,16,71,"3671",ADMIN,2018-11-04 21:29:11,,
271,KOTA CILEGON,16,72,"3672",ADMIN,2018-11-04 21:29:11,,
272,KOTA SERANG,16,73,"3673",ADMIN,2018-11-04 21:29:11,,
273,KOTA TANGERANG SELATAN,16,74,"3674",ADMIN,2018-11-04 21:29:11,,
274,KAB. JEMBRANA,17,1,"5101",ADMIN,2018-11-04 21:29:11,,
275,KAB. TABANAN,17,2,"5102",ADMIN,2018-11-04 21:29:11,,
276,KAB. BADUNG,17,3,"5103",ADMIN,2018-11-04 21:29:11,,
277,KAB. GIANYAR,17,4,"5104",ADMIN,2018-11-04 21:29:11,,
278,KAB. KLUNGKUNG,17,5,"5105",ADMIN,2018-11-04 21:29:11,,
279,KAB. BANGLI,17,6,"5106",ADMIN,2018-11-04 21:29:11,,
280,KAB. KARANGASEM,17,7,"5107",ADMIN,2018-11-04 21:29:11,,
281,KAB. BULELENG,17,8,"5108",ADMIN,2018-11-04 21:29:11,,
282,KOTA DENPASAR,17,71,"5171",ADMIN,2018-11-04 21:29:11,,
283,KAB. LOMBOK BARAT,18,1,"5201",ADMIN,2018-11-04 21:29:11,,
284,KAB. LOMBOK TENGAH,18,2,"5202",ADMIN,2018-11-04 21:29:11,,
285,KAB. LOMBOK TIMUR,18,3,"5203",ADMIN,2018-11-04 21:29:11,,
286,KAB. SUMBAWA,18,4,"5204",ADMIN,2018-11-04 21:29:11,,
287,KAB. DOMPU,18,5,"5205",ADMIN,2018-11-04 21:29:11,,
288,KAB. BIMA,18,6,"5206",ADMIN,2018-11-04 21:29:11,,
289,KAB. SUMBAWA BARAT,18,7,"5207",ADMIN,2018-11-04 21:29:11,,
290,KAB. LOMBOK UTARA,18,8,"5208",ADMIN,2018-11-04 21:29:11,,
291,KOTA MATARAM,18,71,"5271",ADMIN,2018-11-04 21:29:11,,
292,KOTA BIMA,18,72,"5272",ADMIN,2018-11-04 21:29:11,,
293,KAB. KUPANG,19,1,"5301",ADMIN,2018-11-04 21:29:11,,
294,KAB TIMOR TENGAH SELATAN,19,2,"5302",ADMIN,2018-11-04 21:29:11,,
295,KAB. TIMOR TENGAH UTARA,19,3,"5303",ADMIN,2018-11-04 21:29:11,,
296,KAB. BELU,19,4,"5304",ADMIN,2018-11-04 21:29:11,,
297,KAB. ALOR,19,5,"5305",ADMIN,2018-11-04 21:29:11,,
298,KAB. FLORES TIMUR,19,6,"5306",ADMIN,2018-11-04 21:29:11,,
299,KAB. SIKKA,19,7,"5307",ADMIN,2018-11-04 21:29:11,,
300,KAB. ENDE,19,8,"5308",ADMIN,2018-11-04 21:29:11,,
301,KAB. NGADA,19,9,"5309",ADMIN,2018-11-04 21:29:11,,
302,KAB. MANGGARAI,19,10,"5310",ADMIN,2018-11-04 21:29:11,,
303,KAB. SUMBA TIMUR,19,11,"5311",ADMIN,2018-11-04 21:29:11,,
304,KAB. SUMBA BARAT,19,12,"5312",ADMIN,2018-11-04 21:29:11,,
305,KAB. LEMBATA,19,13,"5313",ADMIN,2018-11-04 21:29:11,,
306,KAB. ROTE NDAO,19,14,"5314",ADMIN,2018-11-04 21:29:11,,
307,KAB. MANGGARAI BARAT,19,15,"5315",ADMIN,2018-11-04 21:29:11,,
308,KAB. NAGEKEO,19,16,"5316",ADMIN,2018-11-04 21:29:11,,
309,KAB. SUMBA TENGAH,19,17,"5317",ADMIN,2018-11-04 21:29:11,,
310,KAB. SUMBA BARAT DAYA,19,18,"5318",ADMIN,2018-11-04 21:29:11,,
311,KAB. MANGGARAI TIMUR,19,19,"5319",ADMIN,2018-11-04 21:29:11,,
312,KAB. SABU RAIJUA,19,20,"5320",ADMIN,2018-11-04 21:29:11,,
313,KAB. MALAKA,19,21,"5321",ADMIN,2018-11-04 21:29:11,,
314,KOTA KUPANG,19,71,"5371",ADMIN,2018-11-04 21:29:11,,
315,KAB. SAMBAS,20,1,"6101",ADMIN,2018-11-04 21:29:11,,
316,KAB. MEMPAWAH,20,2,"6102",ADMIN,2018-11-04 21:29:11,,
317,KAB. SANGGAU,20,3,"6103",ADMIN,2018-11-04 21:29:11,,
318,KAB. KETAPANG,20,4,"6104",ADMIN,2018-11-04 21:29:11,,
319,KAB. SINTANG,20,5,"6105",ADMIN,2018-11-04 21:29:11,,
320,KAB. KAPUAS HULU,20,6,"6106",ADMIN,2018-11-04 21:29:11,,
321,KAB. BENGKAYANG,20,7,"6107",ADMIN,2018-11-04 21:29:11,,
322,KAB. LANDAK,20,8,"6108",ADMIN,2018-11-04 21:29:11,,
323,KAB. SEKADAU,20,9,"6109",ADMIN,2018-11-04 21:29:11,,
324,KAB. MELAWI,20,10,"6110",ADMIN,2018-11-04 21:29:11,,
325,KAB. KAYONG UTARA,20,11,"6111",ADMIN,2018-11-04 21:29:11,,
326,KAB. KUBU RAYA,20,12,"6112",ADMIN,2018-11-04 21:29:11,,
327,KOTA PONTIANAK,20,71,"6171",ADMIN,2018-11-04 21:29:11,,
328,KOTA SINGKAWANG,20,72,"6172",ADMIN,2018-11-04 21:29:11,,
329,KAB. KOTAWARINGIN BARAT,21,1,"6201",ADMIN,2018-11-04 21:29:11,,
330,KAB. KOTAWARINGIN TIMUR,21,2,"6202",ADMIN,2018-11-04 21:29:11,,
331,KAB. KAPUAS,21,3,"6203",ADMIN,2018-11-04 21:29:11,,
332,KAB. BARITO SELATAN,21,4,"6204",ADMIN,2018-11-04 21:29:11,,
333,KAB. BARITO UTARA,21,5,"6205",ADMIN,2018-11-04 21:29:11,,
334,KAB. KATINGAN,21,6,"6206",ADMIN,2018-11-04 21:29:11,,
335,KAB. SERUYAN,21,7,"6207",ADMIN,2018-11-04 21:29:11,,
336,KAB. SUKAMARA,21,8,"6208",ADMIN,2018-11-04 21:29:11,,
337,KAB. LAMANDAU,21,9,"6209",ADMIN,2018-11-04 21:29:11,,
338,KAB. GUNUNG MAS,21,10,"6210",ADMIN,2018-11-04 21:29:11,,
339,KAB. PULANG PISAU,21,11,"6211",ADMIN,2018-11-04 21:29:11,,
340,KAB. MURUNG RAYA,21,12,"6212",ADMIN,2018-11-04 21:29:11,,
341,KAB. BARITO TIMUR,21,13,"6213",ADMIN,2018-11-04 21:29:11,,
342,KOTA PALANGKARAYA,21,71,"6271",ADMIN,2018-11-04 21:29:11,,
343,KAB. TANAH LAUT,22,1,"6301",ADMIN,2018-11-04 21:29:11,,
344,KAB. KOTABARU,22,2,"6302",ADMIN,2018-11-04 21:29:11,,
345,KAB. BANJAR,22,3,"6303",ADMIN,2018-11-04 21:29:11,,
346,KAB. BARITO KUALA,22,4,"6304",ADMIN,2018-11-04 21:29:11,,
347,KAB. TAPIN,22,5,"6305",ADMIN,2018-11-04 21:29:11,,
348,KAB. HULU SUNGAI SELATAN,22,6,"6306",ADMIN,2018-11-04 21:29:11,,
349,KAB. HULU SUNGAI TENGAH,22,7,"6307",ADMIN,2018-11-04 21:29:11,,
350,KAB. HULU SUNGAI UTARA,22,8,"6308",ADMIN,2018-11-04 21:29:11,,
351,KAB. TABALONG,22,9,"6309",ADMIN,2018-11-04 21:29:11,,
352,KAB. TANAH BUMBU,22,10,"6310",ADMIN,2018-11-04 21:29:11,,
353,KAB. BALANGAN,22,11,"6311",ADMIN,2018-11-04 21:29:11,,
354,KOTA BANJARMASIN,22,71,"6371",ADMIN,2018-11-04 21:29:11,,
355,KOTA BANJARBARU,22,72,"6372",ADMIN,2018-11-04 21:29:11,,
356,KAB. PASER,23,1,"6401",ADMIN,2018-11-04 21:29:11,,
357,KAB. KUTAI KARTANEGARA,23,2,"6402",ADMIN,2018-11-04 21:29:11,,
358,KAB. BERAU,23,3,"6403",ADMIN,2018-11-04 21:29:11,,
359,KAB. KUTAI BARAT,23,7,"6407",ADMIN,2018-11-04 21:29:11,,
360,KAB. KUTAI TIMUR,23,8,"6408",ADMIN,2018-11-04 21:29:11,,
361,KAB. PENAJAM PASER UTARA,23,9,"6409",ADMIN,2018-11-04 21:29:11,,
362,KAB. MAHAKAM ULU,23,11,"6411",ADMIN,2018-11-04 21:29:11,,
363,KOTA BALIKPAPAN,23,71,"6471",ADMIN,2018-11-04 21:29:11,,
364,KOTA SAMARINDA,23,72,"6472",ADMIN,2018-11-04 21:29:11,,
365,KOTA BONTANG,23,74,"6474",ADMIN,2018-11-04 21:29:11,,
366,KAB. BULUNGAN,24,1,"6501",ADMIN,2018-11-04 21:29:11,,
367,KAB. MALINAU,24,2,"6502",ADMIN,2018-11-04 21:29:11,,
368,KAB. NUNUKAN,24,3,"6503",ADMIN,2018-11-04 21:29:11,,
369,KAB. TANA TIDUNG,24,4,"6504",ADMIN,2018-11-04 21:29:11,,
370,KOTA TARAKAN,24,71,"6571",ADMIN,2018-11-04 21:29:11,,
371,KAB. BOLAANG MONGONDOW,25,1,"7101",ADMIN,2018-11-04 21:29:11,,
372,KAB. MINAHASA,25,2,"7102",ADMIN,2018-11-04 21:29:11,,
373,KAB. KEPULAUAN SANGIHE,25,3,"7103",ADMIN,2018-11-04 21:29:11,,
374,KAB. KEPULAUAN TALAUD,25,4,"7104",ADMIN,2018-11-04 21:29:11,,
375,KAB. MINAHASA SELATAN,25,5,"7105",ADMIN,2018-11-04 21:29:11,,
376,KAB. MINAHASA UTARA,25,6,"7106",ADMIN,2018-11-04 21:29:11,,
377,KAB. MINAHASA TENGGARA,25,7,"7107",ADMIN,2018-11-04 21:29:11,,
378,KAB. BOLAANG MONGONDOW UTARA,25,8,"7108",ADMIN,2018-11-04 21:29:11,,
379,KAB. KEP. SIAU TAGULANDANG BIARO,25,9,"7109",ADMIN,2018-11-04 21:29:11,,
380,KAB. BOLAANG MONGONDOW TIMUR,25,10,"7110",ADMIN,2018-11-04 21:29:11,,
381,KAB. BOLAANG MONGONDOW SELATAN,25,11,"7111",ADMIN,2018-11-04 21:29:11,,
382,KOTA MANADO,25,71,"7171",ADMIN,2018-11-04 21:29:11,,
383,KOTA BITUNG,25,72,"7172",ADMIN,2018-11-04 21:29:11,,
384,KOTA TOMOHON,25,73,"7173",ADMIN,2018-11-04 21:29:11,,
385,KOTA KOTAMOBAGU,25,74,"7174",ADMIN,2018-11-04 21:29:11,,
386,KAB. BANGGAI,26,1,"7201",ADMIN,2018-11-04 21:29:11,,
387,KAB. POSO,26,2,"7202",ADMIN,2018-11-04 21:29:11,,
388,KAB. DONGGALA,26,3,"7203",ADMIN,2018-11-04 21:29:11,,
389,KAB. TOLI TOLI,26,4,"7204",ADMIN,2018-11-04 21:29:11,,
390,KAB. BUOL,26,5,"7205",ADMIN,2018-11-04 21:29:11,,
391,KAB. MOROWALI,26,6,"7206",ADMIN,2018-11-04 21:29:11,,
392,KAB. BANGGAI KEPULAUAN,26,7,"7207",ADMIN,2018-11-04 21:29:11,,
393,KAB. PARIGI MOUTONG,26,8,"7208",ADMIN,2018-11-04 21:29:11,,
394,KAB. TOJO UNA UNA,26,9,"7209",ADMIN,2018-11-04 21:29:11,,
395,KAB. SIGI,26,10,"7210",ADMIN,2018-11-04 21:29:11,,
396,KAB. BANGGAI LAUT,26,11,"7211",ADMIN,2018-11-04 21:29:11,,
397,KAB. MOROWALI UTARA,26,12,"7212",ADMIN,2018-11-04 21:29:11,,
398,KOTA PALU,26,71,"7271",ADMIN,2018-11-04 21:29:11,,
399,KAB. KEPULAUAN SELAYAR,27,1,"7301",ADMIN,2018-11-04 21:29:11,,
400,KAB. BULUKUMBA,27,2,"7302",ADMIN,2018-11-04 21:29:11,,
401,KAB. BANTAENG,27,3,"7303",ADMIN,2018-11-04 21:29:11,,
402,KAB. JENEPONTO,27,4,"7304",ADMIN,2018-11-04 21:29:11,,
403,KAB. TAKALAR,27,5,"7305",ADMIN,2018-11-04 21:29:11,,
404,KAB. GOWA,27,6,"7306",ADMIN,2018-11-04 21:29:11,,
405,KAB. SINJAI,27,7,"7307",ADMIN,2018-11-04 21:29:11,,
406,KAB. BONE,27,8,"7308",ADMIN,2018-11-04 21:29:11,,
407,KAB. MAROS,27,9,"7309",ADMIN,2018-11-04 21:29:11,,
408,KAB. PANGKAJENE KEPULAUAN,27,10,"7310",ADMIN,2018-11-04 21:29:11,,
409,KAB. BARRU,27,11,"7311",ADMIN,2018-11-04 21:29:11,,
410,KAB. SOPPENG,27,12,"7312",ADMIN,2018-11-04 21:29:11,,
411,KAB. WAJO,27,13,"7313",ADMIN,2018-11-04 21:29:11,,
412,KAB. SIDENRENG RAPPANG,27,14,"7314",ADMIN,2018-11-04 21:29:11,,
413,KAB. PINRANG,27,15,"7315",ADMIN,2018-11-04 21:29:11,,
414,KAB. ENREKANG,27,16,"7316",ADMIN,2018-11-04 21:29:11,,
415,KAB. LUWU,27,17,"7317",ADMIN,2018-11-04 21:29:11,,
416,KAB. TANA TORAJA,27,18,"7318",ADMIN,2018-11-04 21:29:11,,
417,KAB. LUWU UTARA,27,22,"7322",ADMIN,2018-11-04 21:29:11,,
418,KAB. LUWU TIMUR,27,24,"7324",ADMIN,2018-11-04 21:29:11,,
419,KAB. TORAJA UTARA,27,26,"7326",ADMIN,2018-11-04 21:29:11,,
420,KOTA MAKASSAR,27,71,"7371",ADMIN,2018-11-04 21:29:11,,
421,KOTA PARE PARE,27,72,"7372",ADMIN,2018-11-04 21:29:11,,
422,KOTA PALOPO,27,73,"7373",ADMIN,2018-11-04 21:29:11,,
423,KAB. KOLAKA,28,1,"7401",ADMIN,2018-11-04 21:29:11,,
424,KAB. KONAWE,28,2,"7402",ADMIN,2018-11-04 21:29:11,,
425,KAB. MUNA,28,3,"7403",ADMIN,2018-11-04 21:29:11,,
426,KAB. BUTON,28,4,"7404",ADMIN,2018-11-04 21:29:11,,
427,KAB. KONAWE SELATAN,28,5,"7405",ADMIN,2018-11-04 21:29:11,,
428,KAB. BOMBANA,28,6,"7406",ADMIN,2018-11-04 21:29:11,,
429,KAB. WAKATOBI,28,7,"7407",ADMIN,2018-11-04 21:29:11,,
430,KAB. KOLAKA UTARA,28,8,"7408",ADMIN,2018-11-04 21:29:11,,
431,KAB. KONAWE UTARA,28,9,"7409",ADMIN,2018-11-04 21:29:11,,
432,KAB. BUTON UTARA,28,10,"7410",ADMIN,2018-11-04 21:29:11,,
433,KAB. KOLAKA TIMUR,28,11,"7411",ADMIN,2018-11-04 21:29:11,,
434,KAB. KONAWE KEPULAUAN,28,12,"7412",ADMIN,2018-11-04 21:29:11,,
435,KAB. MUNA BARAT,28,13,"7413",ADMIN,2018-11-04 21:29:11,,
436,KAB. BUTON TENGAH,28,14,"7414",ADMIN,2018-11-04 21:29:11,,
437,KAB. BUTON SELATAN,28,15,"7415",ADMIN,2018-11-04 21:29:11,,
438,KOTA KENDARI,28,71,"7471",ADMIN,2018-11-04 21:29:11,,
439,KOTA BAU BAU,28,72,"7472",ADMIN,2018-11-04 21:29:11,,
440,KAB. GORONTALO,29,1,"7501",ADMIN,2018-11-04 21:29:11,,
441,KAB. BOALEMO,29,2,"7502",ADMIN,2018-11-04 21:29:11,,
442,KAB. BONE BOLANGO,29,3,"7503",ADMIN,2018-11-04 21:29:11,,
443,KAB. PAHUWATO,29,4,"7504",ADMIN,2018-11-04 21:29:11,,
444,KAB. GORONTALO UTARA,29,5,"7505",ADMIN,2018-11-04 21:29:11,,
445,KOTA GORONTALO,29,71,"7571",ADMIN,2018-11-04 21:29:11,,
446,KAB. MAMUJU UTARA,30,1,"7601",ADMIN,2018-11-04 21:29:11,,
447,KAB. MAMUJU,30,2,"7602",ADMIN,2018-11-04 21:29:11,,
448,KAB. MAMASA,30,3,"7603",ADMIN,2018-11-04 21:29:11,,
449,KAB. POLEWALI MANDAR,30,4,"7604",ADMIN,2018-11-04 21:29:11,,
450,KAB. MAJENE,30,5,"7605",ADMIN,2018-11-04 21:29:11,,
451,KAB. MAMUJU TENGAH,30,6,"7606",ADMIN,2018-11-04 21:29:11,,
452,KAB. MALUKU TENGAH,31,1,"8101",ADMIN,2018-11-04 21:29:11,,
453,KAB. MALUKU TENGGARA,31,2,"8102",ADMIN,2018-11-04 21:29:11,,
454,KAB. MALUKU TENGGARA BARAT,31,3,"8103",ADMIN,2018-11-04 21:29:11,,
455,KAB. BURU,31,4,"8104",ADMIN,2018-11-04 21:29:11,,
456,KAB. SERAM BAGIAN TIMUR,31,5,"8105",ADMIN,2018-11-04 21:29:11,,
457,KAB. SERAM BAGIAN BARAT,31,6,"8106",ADMIN,2018-11-04 21:29:11,,
458,KAB. KEPULAUAN ARU,31,7,"8107",ADMIN,2018-11-04 21:29:11,,
459,KAB. MALUKU BARAT DAYA,31,8,"8108",ADMIN,2018-11-04 21:29:11,,
460,KAB. BURU SELATAN,31,9,"8109",ADMIN,2018-11-04 21:29:11,,
461,KOTA AMBON,31,71,"8171",ADMIN,2018-11-04 21:29:11,,
462,KOTA TUAL,31,72,"8172",ADMIN,2018-11-04 21:29:11,,
463,KAB. HALMAHERA BARAT,32,1,"8201",ADMIN,2018-11-04 21:29:11,,
464,KAB. HALMAHERA TENGAH,32,2,"8202",ADMIN,2018-11-04 21:29:11,,
465,KAB. HALMAHERA UTARA,32,3,"8203",ADMIN,2018-11-04 21:29:11,,
466,KAB. HALMAHERA SELATAN,32,4,"8204",ADMIN,2018-11-04 21:29:11,,
467,KAB. KEPULAUAN SULA,32,5,"8205",ADMIN,2018-11-04 21:29:11,,
468,KAB. HALMAHERA TIMUR,32,6,"8206",ADMIN,2018-11-04 21:29:11,,
469,KAB. PULAU MOROTAI,32,7,"8207",ADMIN,2018-11-04 21:29:11,,
470,KAB. PULAU TALIABU,32,8,"8208",ADMIN,2018-11-04 21:29:11,,
471,KOTA TERNATE,32,71,"8271",ADMIN,2018-11-04 21:29:11,,
472,KOTA TIDORE KEPULAUAN,32,72,"8272",ADMIN,2018-11-04 21:29:11,,
473,KAB. MERAUKE,33,1,"9101",ADMIN,2018-11-04 21:29:11,,
474,KAB. JAYAWIJAYA,33,2,"9102",ADMIN,2018-11-04 21:29:11,,
475,KAB. JAYAPURA,33,3,"9103",ADMIN,2018-11-04 21:29:11,,
476,KAB. NABIRE,33,4,"9104",ADMIN,2018-11-04 21:29:11,,
477,KAB. KEPULAUAN YAPEN,33,5,"9105",ADMIN,2018-11-04 21:29:11,,
478,KAB. BIAK NUMFOR,33,6,"9106",ADMIN,2018-11-04 21:29:11,,
479,KAB. PUNCAK JAYA,33,7,"9107",ADMIN,2018-11-04 21:29:11,,
480,KAB. PANIAI,33,8,"9108",ADMIN,2018-11-04 21:29:11,,
481,KAB. MIMIKA,33,9,"9109",ADMIN,2018-11-04 21:29:11,,
482,KAB. SARMI,33,10,"9110",ADMIN,2018-11-04 21:29:11,,
483,KAB. KEEROM,33,11,"9111",ADMIN,2018-11-04 21:29:11,,
484,KAB. PEGUNUNGAN BINTANG,33,12,"9112",ADMIN,2018-11-04 21:29:11,,
485,KAB. YAHUKIMO,33,13,"9113",ADMIN,2018-11-04 21:29:11,,
486,KAB. TOLIKARA,33,14,"9114",ADMIN,2018-11-04 21:29:11,,
487,KAB. WAROPEN,33,15,"9115",ADMIN,2018-11-04 21:29:11,,
488,KAB. BOVEN DIGOEL,33,16,"9116",ADMIN,2018-11-04 21:29:11,,
489,KAB. MAPPI,33,17,"9117",ADMIN,2018-11-04 21:29:11,,
490,KAB. ASMAT,33,18,"9118",ADMIN,2018-11-04 21:29:11,,
491,KAB. SUPIORI,33,19,"9119",ADMIN,2018-11-04 21:29:11,,
492,KAB. MAMBERAMO RAYA,33,20,"9120",ADMIN,2018-11-04 21:29:11,,
493,KAB. MAMBERAMO TENGAH,33,21,"9121",ADMIN,2018-11-04 21:29:11,,
494,KAB. YALIMO,33,22,"9122",ADMIN,2018-11-04 21:29:11,,
495,KAB. LANNY JAYA,33,23,"9123",ADMIN,2018-11-04 21:29:11,,
496,KAB. NDUGA,33,24,"9124",ADMIN,2018-11-04 21:29:11,,
497,KAB. PUNCAK,33,25,"9125",ADMIN,2018-11-04 21:29:11,,
498,KAB. DOGIYAI,33,26,"9126",ADMIN,2018-11-04 21:29:11,,
499,KAB. INTAN JAYA,33,27,"9127",ADMIN,2018-11-04 21:29:11,,
500,KAB. DEIYAI,33,28,"9128",ADMIN,2018-11-04 21:29:11,,
501,KOTA JAYAPURA,33,71,"9171",ADMIN,2018-11-04 21:29:11,,
502,KAB. SORONG,34,1,"9201",ADMIN,2018-11-04 21:29:11,,
503,KAB. MANOKWARI,34,2,"9202",ADMIN,2018-11-04 21:29:11,,
504,KAB. FAK FAK,34,3,"9203",ADMIN,2018-11-04 21:29:11,,
505,KAB. SORONG SELATAN,34,4,"9204",ADMIN,2018-11-04 21:29:11,,
506,KAB. RAJA AMPAT,34,5,"9205",ADMIN,2018-11-04 21:29:11,,
507,KAB. TELUK BINTUNI,34,6,"9206",ADMIN,2018-11-04 21:29:11,,
508,KAB. TELUK WONDAMA,34,7,"9207",ADMIN,2018-11-04 21:29:11,,
509,KAB. KAIMANA,34,8,"9208",ADMIN,2018-11-04 21:29:11,,
510,KAB. TAMBRAUW,34,9,"9209",ADMIN,2018-11-04 21:29:11,,
511,KAB. MAYBRAT,34,10,"9210",ADMIN,2018-11-04 21:29:11,,
512,KAB. MANOKWARI SELATAN,34,11,"9211",ADMIN,2018-11-04 21:29:11,,
513,KAB. PEGUNUNGAN ARFAK,34,12,"9212",ADMIN,2018-11-04 21:29:11,,
514,KOTA SORONG,34,71,"9271",ADMIN,2018-11-04 21:29:11,,
1,KAB. ACEH SELATAN,1,1,"1101",ADMIN,2018-11-04 21:29:11,,2022-01-23 21:29:11
2,KAB. ACEH TENGGARA,1,2,"1102",ADMIN,2018-11-04 21:29:11,,2022-03-07 21:29:11
